Great Lakes Fish
…
0

16

208

45548

▇▁▁▁▁

exploratory_data %>%
  count(species)

# A tibble: 51 × 2
   species          n
   <chr>        <int>
 1 Alewife        265
 2 Amercian Eel   131
 3 American Eel    28
 4 Blue Pike      366
 5 Bowfin         186
 6 Buffalo        233
 7 Bullhead        21
 8 Bullheads     1196
 9 Burbot        1212
10 Carp          1611
# … with 41 more rows
…
