Penguins Analysis
…
What is the average body mass? What about by island? By species? By sex?

What is the ratio of bill length to bill depth for a penguin? What is the overall average of this metric? Does it change by species, sex, or island?

Does average body mass change by year?

Data Manipulation Tools & Strategies

We can look at individual columns in a data set or subsets of columns in a data set. For example, if we are only interested in flipper length and species, we can select() those columns.

penguins %>%
  select(species, body_mass_g)

# A tibble: 44 × 2
   species body_mass_g
   <chr>         <dbl>
 1 Gentoo         6050
 2 Gentoo         5800
 3 Gentoo         5550
 4 Gentoo         5500
 5 Gentoo         5850
 6 Gentoo         5950
 7 Gentoo         5700
 8 Gentoo         5350
 9 Gentoo         5550
10 Gentoo         6300
# … with 34 more rows
…
We can use mutate() to add new columns to our data set.

penguins %>%
  mutate(bill_ltd_ratio = bill_length_mm / bill_depth_mm)

# A tibble: 44 × 9
   species island bill_length_mm bill_dept…¹ flipp…² body_…³ sex    year bill_…⁴
   <chr>   <chr>           <dbl>       <dbl>   <dbl>   <dbl> <chr> <dbl>   <dbl>
 1 Gentoo  Biscoe           59.6        17       230    6050 male   2007    3.51
 2 Gentoo  Biscoe           48.6        16       230    5800 male   2008    3.04
 3 Gentoo  Biscoe           52.1        17       230    5550 male   2009    3.06
 4 Gentoo  Biscoe           51.5        16.3     230    5500 male   2009    3.16
 5 Gentoo  Biscoe           55.1        16       230    5850 male   2009    3.44
 6 Gentoo  Biscoe           49.8        15.9     229    5950 male   2009    3.13
 7 Gentoo  Biscoe           49.6        16       225    5700 male   2008    3.1 
 8 Gentoo  Biscoe           50          15.9     224    5350 male   2009    3.14
 9 Gentoo  Biscoe           50.5        15.9     222    5550 male   2008    3.18
10 Gentoo  Biscoe           49.2        15.2     221    6300 male   2007    3.24
# … with 34 more rows, and abbreviated variable names ¹​bill_depth_mm,
#   ²​flipper_length_mm, ³​body_mass_g, ⁴​bill_ltd_ratio
…
