Volcano_Eruptions
…
12397.50

314777.00

3049666.00

40640105.00

▇▁▁▁▁

exploratory_data %>%
  count(primary_volcano_type)

# A tibble: 24 × 2
   primary_volcano_type     n
   <chr>                <int>
 1 Caldera                 30
 2 Caldera(s)               4
 3 Complex                 27
 4 Compound                 3
 5 Crater rows              2
 6 Fissure vent(s)          5
 7 Lava cone                1
 8 Lava cone(es)            1
 9 Lava dome                1
10 Lava dome(s)            14
# … with 14 more rows

exploratory_data %>%
  count(country)

# A tibble: 75 × 2
   country             n
   <chr>           <int>
 1 Antarctica          6
 2 Argentina           8
 3 Armenia             2
 4 Australia           1
 5 Bolivia             1
 6 Canada              9
 7 Cape Verde          1
 8 Chad                4
 9 Chile              20
10 Chile-Argentina     5
# … with 65 more rows
…
